C:\ice\UserManamentProject\src\main\java\com\mycompany\usermanamentproject\UserManamentProject.java
C:\ice\UserManamentProject\src\main\java\com\mycompany\usermanamentproject\User.java
C:\ice\UserManamentProject\src\main\java\com\mycompany\usermanamentproject\UserService.java
